[
    {
      "no": 1,
      "empresa": "A&G  TRUCKING GROUP INC, S DE R.L DE C.V",
      "telefono": "664 123 53 36",
      "contacto": "VICTOR GARCÍA",
      "correo_electronico": "rh@agtruckinginc.com",
      "giro": "SERVICIO-TRANSPORTE",
      "convenio": "N/A",
      "comentarios": ""
    },
    {
      "no": 2,
      "empresa": "ACRYLICON MEXICO , S.A DE C.V",
      "telefono": "(664) 623-8199",
      "contacto": "JEANETH VALDEZ",
      "correo_electronico": "jvaldez@mundoconcreto.mx",
      "giro": "INDUSTRIAL",
      "convenio": "SI",
      "comentarios": ""
    },
    {
      "no": 3,
      "empresa": "ACRYLART, S.A DE C.V",
      "telefono": "625-11-16",
      "contacto": "NORMA CARRILLO",
      "correo_electronico": "administración@acrylart.com.mx",
      "giro": "INDUSTRIAL",
      "convenio": "SI",
      "comentarios": ""
    },
    {
      "no": 4,
      "empresa": "ADVANCED TECHNOLOGY SERVICES, MEXICO S. DE R. L. DE C.V. (PRESTADORA DE SERVICIOS DE PERSONAL ATS)",
      "telefono": 6531190082,
      "contacto": "LAURA REYNOSO",
      "correo_electronico": "lreynoso@advancedtech.com     /   csanchez@advancedtech.com",
      "giro": "INDUSTRIAL",
      "convenio": "SI",
      "comentarios": ""
    },
    {
      "no": 5,
      "empresa": "ADVANCIO, S.A DE C.V",
      "telefono": "(646) 206-0462",
      "contacto": "BEATRIZ FILATOFF",
      "correo_electronico": "careers@advancio.com",
      "giro": "INDUSTRIAL",
      "convenio": "SI",
      "comentarios": ""
    },
    {
      "no": 6,
      "empresa": "AERODESIGN DE MÉXICO S.A DE C.V",
      "telefono": "(664)  626  05  55   Ext. 108 / 190",
      "contacto": "ING. KENIA SAMARA HERNANDEZ BASTISAS / LIC. GUSTAVO TREVIÑO ARZOZ / LIC. ESTELA GÓMEZ RAMOS",
      "correo_electronico": "samara.hernandez@zodiacaerospace.com   / estela.gomez@cdzodiacaerospace.com         gustavotrevino@cdzodiacaerospace.com",
      "giro": "INDUSTRIAL",
      "convenio": "SI",
      "comentarios": ""
    },
    {
      "no": 7,
      "empresa": "AGENCIA ADUANAL AISPURO LAVENANT S.C",
      "telefono": "647  20  10",
      "contacto": "C. MIGUEL ANGEL CHAPARRO GARCÍA",
      "correo_electronico": "bodegaaispuro@gmail.com",
      "giro": "SERVICIO",
      "convenio": "SI",
      "comentarios": ""
    },
    {
      "no": 8,
      "empresa": "AGENCIA ADUANAL ENRIQUE TRONCOSO S.C.",
      "telefono": "664-682-82-80 EXT: 123",
      "contacto": "LIC. JANETH PEÑALOZA PINEDA/ JEFA DE DEPARTAMENTO",
      "correo_electronico": "janeth@troncoso.com",
      "giro": "SERVICIO",
      "convenio": "SI",
      "comentarios": ""
    },
    {
      "no": 9,
      "empresa": "AGENCIA ADUANAL G GLOBAL S.A DE C.V.",
      "telefono": "01  664  380  50  28",
      "contacto": "LIC. MARIA FERNANDA LOZADA PANIAGUA",
      "correo_electronico": "talento@g-global.com.mx",
      "giro": "SERVICIO",
      "convenio": "SI",
      "comentarios": ""
    },
    {
      "no": 10,
      "empresa": "AGENCIA ADUANAL HODOYAN NAVARRO S.C.",
      "telefono": "(664)  683  11  50",
      "contacto": "LIC. FRANCISCO JAVIER CORONA PANTOJA/MAGDALENA MEDINA",
      "correo_electronico": "javier.corona@otl.mx/rhumanos@hodoyan-navarro.com.mx",
      "giro": "SERVICIO",
      "convenio": "SI",
      "comentarios": ""
    },
    {
      "no": 11,
      "empresa": "AGENCIA ADUANAL JORGE DIAZ S.C",
      "telefono": "623  23  30 Ext. 275",
      "contacto": "LIC. BIANCA ROCIO CELAYA DORANTES   / ADRIANA SALINAS MÁNRIQUEZ",
      "correo_electronico": "mbalderas@mb.jdgroup.net/reclutamiento@mb.jdgroup.net   /  asalinas@mb-jdgroup.net",
      "giro": "SERVICIO",
      "convenio": "SI",
      "comentarios": ""
    },
    {
      "no": 12,
      "empresa": "AGENCIA ADUANAL LARES COMERCIO EXTERIOR S.C",
      "telefono": "(664)  431  44  91",
      "contacto": "LIC. OSCAR MALCON QUEZADA DEL CASTILLO",
      "correo_electronico": "lic.malcon@hotmail.com",
      "giro": "SERVICIO",
      "convenio": "SI",
      "comentarios": ""
    },
    {
      "no": 13,
      "empresa": "AGENCIA ADUANAL OBREGON S.C.",
      "telefono": "664-623 20 00 Ext. 2216/(664) 134-5225",
      "contacto": "ING. JOSÉ RAFAEL GRANIEL MARTÍNEZ",
      "correo_electronico": "jose.graniel@aa-obregon.com",
      "giro": "SERVICIO",
      "convenio": "SI",
      "comentarios": ""
    },
    {
      "no": 14,
      "empresa": "AGENCIA ADUANAL OLAGUE",
      "telefono": "(664)  208  17  58",
      "contacto": "ING. JUAN ANTONIO OLAGUE FRIAS",
      "correo_electronico": "aolague@aaolague.com",
      "giro": "SERVICIO",
      "convenio": "SI",
      "comentarios": ""
    },
    {
      "no": 15,
      "empresa": "AGENCIA ADUANAL PEÑA PÉREZ, S.C.",
      "telefono": "(664)208-4816",
      "contacto": "LIC. ANA HERNÁNDEZ",
      "correo_electronico": "ana.hernandez@perezortiz.com.mx",
      "giro": "SERVICIO",
      "convenio": "SI",
      "comentarios": ""
    },
    {
      "no": 16,
      "empresa": "AGENCIA ADUANAL PEREZ ORTIZ",
      "telefono": "6,649,734,700",
      "contacto": "ARACELI BAUTISTA B.  / LIC. GABRIELA VIERA SANCHEZ",
      "correo_electronico": "recursos.humanos@perezortiz.com.mx / auxiliar.rh2@perezortiz.com.mx",
      "giro": "SERVICIO",
      "convenio": "SI",
      "comentarios": ""
    },
    {
      "no": 17,
      "empresa": "AGENCIA ADUANAL PIÑERA CHAVEZ S R.L DE C.V",
      "telefono": "(664) 607-9331 y (664) 607-0768",
      "contacto": "VICENTE CORRALES VERDUZCO",
      "correo_electronico": "vicente@pinera.com",
      "giro": "SERVICIO",
      "convenio": "SI",
      "comentarios": ""
    },
    {
      "no": 18,
      "empresa": "AGENCIA ADUANAL RODRIGUEZ Y CIA S.C",
      "telefono": "(664)  683  10  22 Ext. 1125",
      "contacto": "ING. OSCAR JESÚS ONTIVEROS ANTUNEZ  /  L.C.I. XOCHITL ESPINOZA MEZA",
      "correo_electronico": "servicios@aar.com.mx  /  xespinoza@aar.com.mx",
      "giro": "SERVICIO",
      "convenio": "SI",
      "comentarios": ""
    },
    {
      "no": 19,
      "empresa": "AGENCIA ADUANAL ROMERO GALAVIZ S.C",
      "telefono": "52  664  647  26  51 Ext. 117",
      "contacto": "LIC. EDUARDO MARQUEZ SUAREZ/ASERET LOPEZ MORALES",
      "correo_electronico": "operaciontj@romeroestrada.com/aseret@romeroestrada.com   /    facturacion@romeroestrada.com",
      "giro": "SERVICIO",
      "convenio": "SI",
      "comentarios": ""
    },
    {
      "no": 20,
      "empresa": "AGENCIA ADUANAL SORIANO Y ASOCIADOS S.C.",
      "telefono": "(664)  973  73  00",
      "contacto": "LIC. ANDRÉS GILES DE ANDA/LIC. SUSANA G. CUAXILOA CASTRO",
      "correo_electronico": "operacion@a-aduanalsoriano.com.mx/juridico@a-aduanalsoriano.com.mx",
      "giro": "SERVICIO",
      "convenio": "SI",
      "comentarios": ""
    },
    {
      "no": 21,
      "empresa": "AGENCIA ADUANERA DE AMERICA EN TIJUANA S.C.",
      "telefono": "647  82  82  /  664  06  61",
      "contacto": "VICTOR HUGO IBARRA",
      "correo_electronico": "victor.ibarra@aaamerica.com.mx",
      "giro": "SERVICIO",
      "convenio": "SI",
      "comentarios": ""
    },
    {
      "no": 22,
      "empresa": "AGENCIA ADUANAL PIÑERA CHAVEZ S DE R. L. DE C.V",
      "telefono": "(664)  607  07  68",
      "contacto": "ING. MARIA SUSANA PÉREZ PAZ",
      "correo_electronico": "susana@pinera.com",
      "giro": "SERVICIO",
      "convenio": "SI",
      "comentarios": ""
    },
    {
      "no": 23,
      "empresa": "AGENCIA INTERNACIONAL ESTRADA E IBARRA S.C",
      "telefono": "664-451-24-93",
      "contacto": "LIC. LEONOR ANGELICA ESTRADA CONTRERAS/ GERENTE GENERAL",
      "correo_electronico": "leonor.estrada@estradaibarrasc.com",
      "giro": "SERVICIO",
      "convenio": "SI",
      "comentarios": ""
    },
    {
      "no": 24,
      "empresa": "ASOCIACIÓN DE AGENTES ADUANALES DE TIJUANA Y TECATE A.C.",
      "telefono": "664-682-85-55",
      "contacto": "LIC. ANGELICA CRUZ",
      "correo_electronico": "ecruz@agentesaduanales.org",
      "giro": "SERVICIO",
      "convenio": "SI",
      "comentarios": ""
    },
    {
      "no": 25,
      "empresa": "AIT WORLDWIDE LOGISTICS, S DE R.L. DE C.V.",
      "telefono": "664-205-1143",
      "contacto": "KARINA VARGAS HERNÁNDEZ/ INTERNACIONAL OPS SUPERVISOR",
      "correo_electronico": "kvargas@aitworldwide.com",
      "giro": "INDUSTRIAL",
      "convenio": "SI",
      "comentarios": ""
    },
    {
      "no": 26,
      "empresa": "ALIANZAS AFECTUOSAS, SA. DE C.V",
      "telefono": "686 526 5440",
      "contacto": "LIC. NUBIA VIANEY NUÑEZ RAMOS",
      "correo_electronico": "nnunez@opefar.com",
      "giro": "FARMACÉUTICA",
      "convenio": "SI",
      "comentarios": ""
    },
    {
      "no": 27,
      "empresa": "ALIMENTOS Y SALSAS DE MÉXICO S.A DE C.V",
      "telefono": "(665) 654-0791 Ext. 1115",
      "contacto": "ROBERTO MERCADO",
      "correo_electronico": "roberto.mercado@alimentosysalsas.com",
      "giro": "INDUSTRIAL",
      "convenio": "N/A",
      "comentarios": ""
    },
    {
      "no": 28,
      "empresa": "ALVAREZ CARMONA ASOCIADOS S. C.",
      "telefono": "(664) 684-0722 Ext. 115",
      "contacto": "C.P. SOFÍA ÁLVAREZ CARMONA",
      "correo_electronico": "sofia@alvarezcarmona.com",
      "giro": "SERVICIO",
      "convenio": "N/A",
      "comentarios": ""
    },
    {
      "no": 29,
      "empresa": "AMEX DE MEXICO S.A DE C.V.",
      "telefono": "6,646,233,704",
      "contacto": "RECURSOS HUMANOS",
      "correo_electronico": "hrtijuana@steelcase.com",
      "giro": "INDUSTRIAL",
      "convenio": "SI",
      "comentarios": ""
    },
    {
      "no": 30,
      "empresa": "AMEX UPHOLSTERY  S DE R.L DE C.V",
      "telefono": "(664) 903-3050",
      "contacto": "DORA MORALES GONZALEZ   /  NEYED TORRES MARQUEZ",
      "correo_electronico": "amexupholestery@hotmail.com   /  neyedt@margecarson.com",
      "giro": "MANUFACTURA",
      "convenio": "SI",
      "comentarios": ""
    },
    {
      "no": 31,
      "empresa": "APTIV CONTRACT SERVICES TIJUANA S. DE R. L. DE C.V.",
      "telefono": "(664)  622  61  75",
      "contacto": "LIC. VICTOR CAMACHO",
      "correo_electronico": "victor.camacho-hidalgo@aptiv.com",
      "giro": "SERVICIO",
      "convenio": "SI",
      "comentarios": ""
    },
    {
      "no": 32,
      "empresa": "ARGUS TECNOLOGIA S.A DE C.V",
      "telefono": "215-0657 (664) 33 7908 8",
      "contacto": "EDGAR HERNÁNDEZ",
      "correo_electronico": "edgar@argustecnologias.com, fernanda@argustecnologias.com",
      "giro": "INDUSTRIAL",
      "convenio": "SI",
      "comentarios": ""
    },
    {
      "no": 33,
      "empresa": "ARKALED DE SUMINISTROS INDUSTRIALES, S DE R.L DE C.V",
      "telefono": "664 629 4879/  215-0657 /(664) 33 7908 8",
      "contacto": "CHRISTOPHER MANDUJANO",
      "correo_electronico": "integracion.ventas@arkaled.com",
      "giro": "INDUSTRIAL",
      "convenio": "SI",
      "comentarios": ""
    },
    {
      "no": 34,
      "empresa": "ARNESES Y CONEXIONES S.A DE C.V",
      "telefono": "(664)  623  37  00",
      "contacto": "LETICIA MORALES MORALES",
      "correo_electronico": "leticia_morales@osca-arcosa.com",
      "giro": "INDUSTRIAL",
      "convenio": "SI",
      "comentarios": ""
    },
    {
      "no": 35,
      "empresa": "ARREGA TECNOLOGÍA S.A.P.I DE C.V.",
      "telefono": "664 608-9263",
      "contacto": "RAUL MARTINEZ FUENTES / LAURA ESCANDON",
      "correo_electronico": "sgsoto@arregaindustrial.com / empleo@arregaindustrial.com",
      "giro": "INDUSTRIAL",
      "convenio": "SI",
      "comentarios": ""
    },
    {
      "no": 36,
      "empresa": "ARRIS GROUP DE MÉXICO S.A DE C.V",
      "telefono": "(664) 512-7309",
      "contacto": "ALEJANDRO ARELLANO",
      "correo_electronico": "reclutamiento@commscope.com",
      "giro": "SERVICIO",
      "convenio": "N/A",
      "comentarios": ""
    },
    {
      "no": 37,
      "empresa": "ARTESANIAS BAJA S. DE R.L. DE C.V.",
      "telefono": "624-93-53",
      "contacto": "LIC. PAULO CESAR AMADOR NAVARRO/ SUPERINTENDENTE DE LOGÍSTICA",
      "correo_electronico": "pamador@hubbell.com",
      "giro": "SERVICIO",
      "convenio": "SI",
      "comentarios": ""
    },
    {
      "no": 38,
      "empresa": "ARVI SERVICIOS INTEGRALES S.C.",
      "telefono": "(664)  604  67  11",
      "contacto": "JUAN CARLOS ARIAS VILLA",
      "correo_electronico": "juancarlosav28@gmail.com",
      "giro": "INDUSTRIAL",
      "convenio": "SI",
      "comentarios": ""
    },
    {
      "no": 39,
      "empresa": "ASCENCIO SOULES Y CÍA S.C",
      "telefono": "52  664  104  14  12  y 18",
      "contacto": "C.P. CANDELARIO ASCENCIO SOULES",
      "correo_electronico": "ascenciocp@gmail.com/nasoules@hotmail.com",
      "giro": "SERVICIO",
      "convenio": "N/A",
      "comentarios": ""
    },
    {
      "no": 40,
      "empresa": "ASEN NOROESTE, S. DE R.L DE C.V",
      "telefono": "378-73-88",
      "contacto": "ING. VICTOR BARRÓN",
      "correo_electronico": "victor@asen.com.mx",
      "giro": "INDUSTRIAL",
      "convenio": "SI",
      "comentarios": ""
    },
    {
      "no": 41,
      "empresa": "ASESORES ADUANALES Y COMERCIALES S.A.",
      "telefono": "506-2234-2455",
      "contacto": "RODOLFO ARCE PORTUGUEZ/ PRESIDENTE",
      "correo_electronico": "rodoarce@racsa.co.cr",
      "giro": "SERVICIO",
      "convenio": "SI",
      "comentarios": ""
    },
    {
      "no": 42,
      "empresa": "ASESORES INTEGRALES FISCALES Y FINANCIEROS",
      "telefono": "664-683-1220",
      "contacto": "C.P. ANA ISABEL GRANADOS CAMARGO/ CONTADORA",
      "correo_electronico": "asiffin@asiffin.com",
      "giro": "SERVICIO",
      "convenio": "SI",
      "comentarios": ""
    },
    {
      "no": 43,
      "empresa": "ASESORES TECNICOS Y MANTENIMENTO DE ESTACIONES DE SERVICIOS S.A DE C.V.",
      "telefono": "902  72  00  /  7201",
      "contacto": "C.P. BRENDA DEL CARMEN ACEVEDO RAMIREZ",
      "correo_electronico": "atmtijuana@gmail.com",
      "giro": "SERVICIO",
      "convenio": "SI",
      "comentarios": ""
    },
    {
      "no": 44,
      "empresa": "ASESORÍAS Y CONSTRUCCIONES ESPECIALIZADAS, S.A. DE C.V.",
      "telefono": "625-4238 y 625-5060",
      "contacto": "LIC. YESENIA VILLALOBOS ESTRADA",
      "correo_electronico": "yesenia.villalobos@acesaco.com / olegario@acesagp.com.mx",
      "giro": "INDUSTRIAL",
      "convenio": "SI",
      "comentarios": ""
    },
    {
      "no": 45,
      "empresa": "ASESORIAS Y SEVICIOS EN COMUNICACIONES Y ELECTRONICA S.A. DE C.V.",
      "telefono": "664-622-1720",
      "contacto": "ING. VICENTE HERNÁNDEZ/ DIRECTOR",
      "correo_electronico": "vicente@nrgia.mx",
      "giro": "SERVICIO",
      "convenio": "SI",
      "comentarios": ""
    },
    {
      "no": 46,
      "empresa": "ASK INDEX DE MÉXICO S.A DE C.V",
      "telefono": "607 2786 EXT 101",
      "contacto": "JORGE ORTÍZ",
      "correo_electronico": "jorge.ortiz@askusnet.com",
      "giro": "INDUSTRIAL",
      "convenio": "SI",
      "comentarios": ""
    },
    {
      "no": 47,
      "empresa": "ASOMBRO MARKETING",
      "telefono": "664-684-14-32/ 381-53-85",
      "contacto": "ARTURO ROCHA ROBLEDO",
      "correo_electronico": "arturo@asombromarjeting.com",
      "giro": "SERVICIOS",
      "convenio": "N/A",
      "comentarios": ""
    },
    {
      "no": 48,
      "empresa": "AUDICO COMERCIO EXTERIOR S.C",
      "telefono": 6643820846,
      "contacto": "LIC. REIMY MARES",
      "correo_electronico": "rmares@audico.com.mx",
      "giro": "SERVICIO",
      "convenio": "N/A",
      "comentarios": ""
    },
    {
      "no": 49,
      "empresa": "AUTO ALFOMBRAS CAMSA S.A. DE C.V.",
      "telefono": "(664) 636-1166",
      "contacto": "C.P. MARGARITA ZARILLANA     /    ING. RAFAEL VALENZUELA FLORES",
      "correo_electronico": "ventas@alfombrascamsa.com.mx  / calidad.camsa@hotmail.com",
      "giro": "COMERCIO",
      "convenio": "SI",
      "comentarios": ""
    },
    {
      "no": 50,
      "empresa": "AUTOBUSES DE LA BAJA CALIFORNIA S.A.  DE C.V.",
      "telefono": "104-74-00 ext 7414   /  104 74 00 Ext 7458",
      "contacto": "ANA EDITH     /     AZUCENA NARVAEZ",
      "correo_electronico": "eortiz@bajapack.com/ecastillo_65@mardecortes.net  / anevarez@abc.com.mx",
      "giro": "SERVICIO",
      "convenio": "SI",
      "comentarios": ""
    },
    {
      "no": 51,
      "empresa": "AUTOLIV SAFETY TECHNOLOGY, S.A. DE C.V.",
      "telefono": "664-625-53-02 ext 88065",
      "contacto": "LILIANA NOGUERÓN     /    LIC. NALLELY CECILIA COTA",
      "correo_electronico": "liliana.nogueron@autoliv.com   ast.reclutamiento@autoliv.com",
      "giro": "INDUSTRIAL",
      "convenio": "SI",
      "comentarios": ""
    },
    {
      "no": 52,
      "empresa": "AUTOMATAZ (EMPRESA UBICADA EN OTAY)",
      "telefono": "664 484 67 93",
      "contacto": "LIC. ANA CARLA GONZÁLEZ",
      "correo_electronico": "carla.gonzalez@automatas.com.mx",
      "giro": "INDUSTRIA",
      "convenio": "N/A",
      "comentarios": ""
    },
    {
      "no": 53,
      "empresa": "AUTOMATIZACIONES, SERVICIOS INDUSTRIALES Y DE CONTROL (ASIC)",
      "telefono": "(664)  381  12  61",
      "contacto": "ING. JESÚS MARTÍN ROJO TORRES",
      "correo_electronico": "mrojo@asicmx.com",
      "giro": "SERVICIO",
      "convenio": "SI",
      "comentarios": ""
    },
    {
      "no": 54,
      "empresa": "AUTOTRANSPORTE DE CARGA TRES GUERRAS S.A DE C.V.",
      "telefono": "(664)  969  43  60",
      "contacto": "HECTOR LOZANO ORTIZ",
      "correo_electronico": "hectorl@tresguerras.com.mx",
      "giro": "SERVICIO",
      "convenio": "SI",
      "comentarios": ""
    },
    {
      "no": 55,
      "empresa": "AVAILMED S.A DE C.V",
      "telefono": "977  27  43  /  664  451  88  74",
      "contacto": "ENRIQUE ALBERTO MEJIA GUERRERO",
      "correo_electronico": "enrique.mejia@flex.com",
      "giro": "INDUSTRIA",
      "convenio": "SI",
      "comentarios": ""
    },
    {
      "no": 56,
      "empresa": "AVANTI DERMA, S.C.",
      "telefono": "687-4848",
      "contacto": "LIC. ARTURO CADIÑO VILCHIS",
      "correo_electronico": "arturo@avantiderma.com",
      "giro": "SERVICIO",
      "convenio": "SI",
      "comentarios": ""
    },
    {
      "no": 57,
      "empresa": "AVERY PRODUCTS S. DE R.L. DE C.V.",
      "telefono": "664-660-2100",
      "contacto": "LUIS FERNANDO CAZARES BURROLA / SUPERVISOR DE MANTENIMIENTO",
      "correo_electronico": "fcazarez@avery.com      /   reclutamientotj@avery.com",
      "giro": "INDUSTRIA",
      "convenio": "SI",
      "comentarios": ""
    },
    {
      "no": 58,
      "empresa": "AVIT SOLUCIONES S DE R.L DE C.V",
      "telefono": "664-686-18-00 Ext. 3401",
      "contacto": "ING. ENRIQUE CAMILO GUZMÁN CASTAÑOS / DIRECTOR DE SOLUCIONES DE TI.",
      "correo_electronico": "enrique.guzman@avitsol.com",
      "giro": "INDUSTRIA",
      "convenio": "SI",
      "comentarios": ""
    },
    {
      "no": 59,
      "empresa": "AYCOR",
      "telefono": "664-647-39-54   / 624-3882",
      "contacto": "ING. KALELL CANOBBIO",
      "correo_electronico": "direccion@aycor.com.mx",
      "giro": "INDUSTRIA",
      "convenio": "N/A",
      "comentarios": ""
    },
    {
      "no": 60,
      "empresa": "BAJA TESTING LAB, S. DE R.L. DE C.V.",
      "telefono": "664 607 25 09",
      "contacto": "ANDREA MALENA JUAREZ ESPERO/ ING. ANGELICA PASCUAL",
      "correo_electronico": "malena.juarez@bajatestinglab.com     /    angelica.pascual@bajatestinglab.com",
      "giro": "INDUSTRIAL",
      "convenio": "SI",
      "comentarios": ""
    },
    {
      "no": 61,
      "empresa": "BANCO DE ALIMENTOS DE TIJUANA, A.C.",
      "telefono": "664-629-27-00",
      "contacto": "LIC. TANIA CÓRDOVA GUTIERREZ   /   GERENTE DE RECURSOS HUMANOS",
      "correo_electronico": "recursoshumanos@banati.org",
      "giro": "COMERCIO",
      "convenio": "SI",
      "comentarios": ""
    },
    {
      "no": 62,
      "empresa": "BAXTER",
      "telefono": "664.368.7922",
      "contacto": "CRISTIAN ANTONIO MARTINEZ / ALONSO AYALA",
      "correo_electronico": "cristian_martinez@baxter.com      alonso_ayala@baxter.com",
      "giro": "INDUSTRIAL",
      "convenio": "N/A",
      "comentarios": ""
    },
    {
      "no": 63,
      "empresa": "BAZZ HOUSTON S. DE R.L. DE C.V.",
      "telefono": "(664)  629  15  24 Ext. 114",
      "contacto": "M.C. MA . DE LOS ÁNGELES  MONTOYA MEZA",
      "correo_electronico": "angeles.montoya@bazzhouston.com/zuylma.gullen@bazzhouston.com",
      "giro": "COMERCIO",
      "convenio": "SI",
      "comentarios": ""
    },
    {
      "no": 64,
      "empresa": "BCB LOGISTICS S DE R.L DE C.V",
      "telefono": "(664)  647  59  42",
      "contacto": "LIC. ZULMA FRANCO MONTAÑO",
      "correo_electronico": "zulma@bajaimport.com.mx",
      "giro": "COMERCIO",
      "convenio": "SI",
      "comentarios": ""
    },
    {
      "no": 65,
      "empresa": "BENCHMARK ELECTRONICS TIJUANA S. DE R.L. DE C.V.",
      "telefono": "664 655 11 00 ext. 2508",
      "contacto": "VALERIA URIAS",
      "correo_electronico": "valeria.urias@bench.com",
      "giro": "INDUSTRIAL",
      "convenio": "SI",
      "comentarios": ""
    },
    {
      "no": 66,
      "empresa": "BIMBO S.A DE C.V",
      "telefono": "664-6-60-25-54",
      "contacto": "LIC. KARINA LÓPEZ",
      "correo_electronico": "btillopenav@grupobimbo.com",
      "giro": "INDUSTRIAL",
      "convenio": "N/A",
      "comentarios": ""
    },
    {
      "no": 67,
      "empresa": "BLING BLING S.A DE C.V.",
      "telefono": "(664)  622  30  84 Ext. 111",
      "contacto": "LC. JUAN MANUEL MALDONADO RANGEL/L.A.E. RAQUEL TORRES",
      "correo_electronico": "jmaldonado@blingbling.com.mx/raquel.torres@blingbling.com.mx",
      "giro": "COMERCIO",
      "convenio": "N/A",
      "comentarios": ""
    },
    {
      "no": 68,
      "empresa": "BORDER ASSEMBLY, S. DE R.L DE C.V",
      "telefono": "664-647-54-08",
      "contacto": "MARTHA COTA",
      "correo_electronico": "erika.garcia@unlimitedelectro.com/martha.cota@tecma.com   /    claudia.cruz@tecma.com",
      "giro": "INDUSTRIAL",
      "convenio": "SI",
      "comentarios": ""
    },
    {
      "no": 69,
      "empresa": "BORDER AUTOMATION MANUFACTURING DE MEXICO S.A DE C.V.",
      "telefono": "(664)  647  54  08",
      "contacto": "LIC. ERIKA GARCÍA   /   COORDINADORA DE R.H Y ADUANAS",
      "correo_electronico": "erika.garcia@unlimitedelectro.com",
      "giro": "INDUSTRIAL",
      "convenio": "SI",
      "comentarios": ""
    },
    {
      "no": 70,
      "empresa": "BOSE CORPORATION S.A. DE C.V.",
      "telefono": "01-664-979-400",
      "contacto": "ING. MISAEL MARCÍAS CERON  /   SUPERVISOR DE PLANEACIÓN",
      "correo_electronico": "misael.macias@bose.com",
      "giro": "INDUSTRIAL",
      "convenio": "SI",
      "comentarios": ""
    },
    {
      "no": 71,
      "empresa": "BOX IN TIME S DE R.L DE C.V",
      "telefono": "664 839 07 00 EXT. 203       664 120 58 26",
      "contacto": "LIC. ESTHER ANGULO",
      "correo_electronico": "administracion@boxintime.com",
      "giro": "MANUFACTURA",
      "convenio": "N/A",
      "comentarios": ""
    },
    {
      "no": 72,
      "empresa": "BRADY SERVICIOS S DE R.L. DE C.V.",
      "telefono": "664-2361-49-00 Ext. 791142",
      "contacto": "ALEJANDRO BARRERA",
      "correo_electronico": "alejandro_barrera@bradycorp.com",
      "giro": "SERVICIOS",
      "convenio": "SI",
      "comentarios": ""
    },
    {
      "no": 73,
      "empresa": "BRG SPORTS MÉXICO S.A DE C.V.",
      "telefono": "(664) 134-10-46",
      "contacto": "LIC. ALBA NYDIA HERRERA  (HR COORDINADOR)     /       LIC. CLAUDIA MACÍAS DUARTE    /   ALMA HERNÁNDEZ",
      "correo_electronico": "anherrera@brgsports.com       /        cmacias@brgsports.com    /     arhernandez@brgsports.com",
      "giro": "INDUSTRIAL",
      "convenio": "SI",
      "comentarios": ""
    },
    {
      "no": 74,
      "empresa": "BROAN BUILDING PRODUCTS MEXICO  DE R.L DE C.V",
      "telefono": "665- 655 - 52- 00",
      "contacto": "ING. ESTEFANIA ORTÍZ      /       MARÍA LÓPEZ",
      "correo_electronico": "evelyn.galvan@broan.com  / maria.lopez@broan.com",
      "giro": "INDUSTRIAL",
      "convenio": "SI",
      "comentarios": ""
    },
    {
      "no": 75,
      "empresa": "BUCHER INDUSTRIES CGLB S. DE R. L. DE C.V.",
      "telefono": "(664)  976  56  56  Ext. 202",
      "contacto": "KEYDI SÁNCHEZ         /      DANIELA PAOLA LÓPEZ LOZOYA",
      "correo_electronico": "rec.humanos@bucherinc.com    /     sanchez.k@bucherinc.com/c.v@bucherinc.com",
      "giro": "INDUSTRIAL",
      "convenio": "SI",
      "comentarios": ""
    },
    {
      "no": 76,
      "empresa": "CAL MIL DE MEXICO S. DE R.L DE C.V.",
      "telefono": "664-629-081/ 664 689 85 50",
      "contacto": "GUSTAVO SÁNCHEZ/YAZMIN VARGAS /ORQUIDEA LOZANO MORENO",
      "correo_electronico": "tjcustoms@calmil.com/yvargas@camil.com   /  orquidea.californiabreadcompany@gmail.com",
      "giro": "MAQUILADORA",
      "convenio": "SI",
      "comentarios": ""
    },
    {
      "no": 77,
      "empresa": "CALIFORNIA BREAD COMPANY S DE R.L DE C.V",
      "telefono": "(664) 607-2879",
      "contacto": "ORQUIDEA LOZANO MORENO/ELIZABETH ROBLES",
      "correo_electronico": "orquidea.californiabreadcompany@gmail.com/rhcaliforniabreadco@gmail.com",
      "giro": "MANUFACTURERA",
      "convenio": "SI",
      "comentarios": ""
    },
    {
      "no": 78,
      "empresa": "CALIFORNIA LOGISTICS GROUP, OSJACA S. DE R. L. DE C.V.",
      "telefono": "(664)  623  27  21",
      "contacto": "LIC. MICHELLE RAMOS LÓPEZ (RECURSOS HUMANOS)     /      RIGOBERTO CORDERO MORENO",
      "correo_electronico": "recursosh@californialg.com",
      "giro": "SERVICIOS",
      "convenio": "SI",
      "comentarios": ""
    },
    {
      "no": 79,
      "empresa": "CALINOR, S.A. DE C.V.",
      "telefono": "(01152664) 689-14-55  Ext. 105",
      "contacto": "JOSE ENRIQUE CALDERA A. / YLUANA MAGALLANES",
      "correo_electronico": "jenriquecaldera@calinor.com.mx/ylianamagallanes@calinor.com.mx",
      "giro": "COMERCIAL",
      "convenio": "SI",
      "comentarios": ""
    },
    {
      "no": 80,
      "empresa": "CAMEX LL S DE RL DE CV",
      "telefono": "969-42-00 ext 1018 1",
      "contacto": "LIC. ISABEL YOQUIHUI   (ESP JR. DE CONTRATACIÓN)",
      "correo_electronico": "isabel.yoquihui@tkcamex.com",
      "giro": "INDUSTRIAL",
      "convenio": "SI",
      "comentarios": ""
    },
    {
      "no": 81,
      "empresa": "CARL ZEISS VISION MANUFACTURA DE MÉXICO S DE R. L. DE C.V.",
      "telefono": "(664)  134  08  00 Ext. 4224, 4056",
      "contacto": "LIC. GUADALUPE GONZALEZ",
      "correo_electronico": "guadalupe.gonzalez@zeiss.com",
      "giro": "INDUSTRIAL",
      "convenio": "SI",
      "comentarios": ""
    },
    {
      "no": 82,
      "empresa": "CENTRAL DETALLISTA S.A. DE C.V. CALIMAX",
      "telefono": "(664) 633-7900 Ext. 2338",
      "contacto": "FARAH ESPRIU / VIRIDIANA CASTELLÓN",
      "correo_electronico": "farah.espriu@calimax.com.mx   / viridiana.castellon@calimax.com.mx        /dalia.gutierrez@calimax.com.mx",
      "giro": "SERVICIO",
      "convenio": "SI",
      "comentarios": ""
    },
    {
      "no": 83,
      "empresa": "CERVECERÍA CUAUHTEMOC MOCTEZUMA, S.A DE C.V.",
      "telefono": "665-654-9353/  104-22-00",
      "contacto": "DANIELA VENEGAS GONZÁLEZ/PILAR MARIA ROSAS RODRIGUEZ",
      "correo_electronico": "mendezvidana14@gmail.com",
      "giro": "INDUSTRIAL",
      "convenio": "SI",
      "comentarios": ""
    },
    {
      "no": 84,
      "empresa": "COAST METAL SUPPLY, S. DE R.L. DE C.V.",
      "telefono": "6,646,255,052",
      "contacto": "BLANCA SOSA",
      "correo_electronico": "blancas@coastaluminum.com",
      "giro": "INDUSTRIAL",
      "convenio": "SI",
      "comentarios": ""
    },
    {
      "no": 85,
      "empresa": "COASTLINE DE MÉXICO, S.A. DE C.V",
      "telefono": "(664) 686-0510 Ext. 124",
      "contacto": "RECURSOS HUMANOS  /   ING. MARÍA DEL CARMEN ALTAMIRA LÓPEZ",
      "correo_electronico": "reclutamiento@coastlineintl.com / carmena@coastlineintl.com",
      "giro": "INDUSTRIAL",
      "convenio": "SI",
      "comentarios": ""
    },
    {
      "no": 86,
      "empresa": "CO PRODUCTION INTERNATIONAL",
      "telefono": "664-450-05-10",
      "contacto": "LIC. RAUL YAIR GERMAN ACOSTA",
      "correo_electronico": "raul.german@co-production.net",
      "giro": "INDUSTRIAL",
      "convenio": "SI",
      "comentarios": ""
    },
    {
      "no": 87,
      "empresa": "COORDINADORA DE SERVICIOS ADUANALES ATLAS, S.C",
      "telefono": "(664)  440  61  07 / 664 542 76 04",
      "contacto": "LIC. ROBERTO CASTRO BOJÓRQUEZMARIA STEFANY DIAZ RUIZ",
      "correo_electronico": "roberto.castro@agencia-atlas.com        /                  maria.stefany.diaz.ruiz@uabc.com.mx",
      "giro": "SERVICIOS",
      "convenio": "SI",
      "comentarios": ""
    },
    {
      "no": 88,
      "empresa": "CRISSAIR DE MÉXICO, S.A. DE C.V",
      "telefono": "(664)  423  24  00",
      "contacto": "L.C.C KARLA ANAYA GUTIÉRREZ",
      "correo_electronico": "kanaya@crissair.com",
      "giro": "INDUSTRIAL",
      "convenio": "SI",
      "comentarios": ""
    },
    {
      "no": 89,
      "empresa": "GOSSLER, S.C. MEMBER CROWE GLOBAL",
      "telefono": "664-686-31-91",
      "contacto": "LIC. PAULINA TORRES PERALTA",
      "correo_electronico": "paulina.torres@crowe.mx",
      "giro": "INDUSTRIA",
      "convenio": "SI",
      "comentarios": ""
    },
    {
      "no": 90,
      "empresa": "CUSTOM SENSORS & TECHNOLOGIES TRANSPORTATION DE MEXICO S.A DE C.V",
      "telefono": "(664)  627  34  42",
      "contacto": "ING. FRANCISCO HUMBERTO CEDANO CARRILLO",
      "correo_electronico": "francisco.cedano@sensata.com",
      "giro": "SERVICIOS",
      "convenio": "SI",
      "comentarios": ""
    },
    {
      "no": 91,
      "empresa": "DART SERVICES BAJA S. R.L DE C.V.",
      "telefono": "(664) 969-7200",
      "contacto": "VIANEY PAOLA TERRAZAS // ALEJANDRO CASTRO",
      "correo_electronico": "VianeyPaola.Terrazas@dart.biz/// Alejandra.Castro@dart.biz",
      "giro": "INDUSTRIAL",
      "convenio": "SI",
      "comentarios": ""
    },
    {
      "no": 92,
      "empresa": "DELPHI CONNECTION SYSTEMS TIJUANA S.A. DE C.V.",
      "telefono": "(664) 622-6100 Ext. 6174",
      "contacto": "SONIA AGUILAR /ERIKA REYNOSO GONZALEZ, VICTOR CAMACHO",
      "correo_electronico": "erica.reynoso-gonzalez@aptiv.com, victor.camacho-hidalgo@aptiv.com",
      "giro": "INDUSTRIA",
      "convenio": "SI",
      "comentarios": ""
    },
    {
      "no": 93,
      "empresa": "DESICCARE MÉXICO S. DE R. L. DE C.V.",
      "telefono": "625  41  38 / 664 625 4279",
      "contacto": "LIC. KARLA JACQUES LEYVA/ LIC. LETICIA MARTINEZ  / ING. LEANDRO ABEL SÁNCHEZ GARCÍA",
      "correo_electronico": "reclutamiento@tecma.com / m@desiccare.com",
      "giro": "ALIMENTICIO",
      "convenio": "SI",
      "comentarios": ""
    },
    {
      "no": 94,
      "empresa": "DESPACHO FUENTES Y CIA, S.C.",
      "telefono": "(664) 622-4920 Ext. 2",
      "contacto": "STHEPHANIE ESQUIVEL",
      "correo_electronico": "stephanie@despachofuentes.com",
      "giro": "MANUFACTURA",
      "convenio": "SI",
      "comentarios": ""
    },
    {
      "no": 95,
      "empresa": "DESPACHO GARCÍA GARCÍA Y CIA . S.C",
      "telefono": "664-684-79-60",
      "contacto": "SARA CAMPOS ZAPATA",
      "correo_electronico": "cpgarcia_garcia@hotmail.com",
      "giro": "SERVICIO",
      "convenio": "SI",
      "comentarios": ""
    },
    {
      "no": 96,
      "empresa": "DESPACHO GONZALEZ Y ASOCIADOS",
      "telefono": "629  59  37",
      "contacto": "L.C.P. JUSTO LUIS GONZÁLEZ RAYMUNDO",
      "correo_electronico": "depachognz99@outlook.com",
      "giro": "SERVICIO",
      "convenio": "SI",
      "comentarios": ""
    },
    {
      "no": 97,
      "empresa": "DEVICOR MEDICAL PRODUCTS DE MÉXICO, S. DE R. L. DE C.V. (MAMMOTOME)",
      "telefono": "973  64  04 Ext. 5215",
      "contacto": "LIC. ISABEL SÁNCHEZ    (HUMAN RESOURCES GENERALIST)   /   JORGE AGUILERA LÓPEZ",
      "correo_electronico": "isabel. sanchez@mammotome.com",
      "giro": "MANUFACTURA",
      "convenio": "SI",
      "comentarios": ""
    },
    {
      "no": 98,
      "empresa": "DIALIGHT DE MÉXICO, S. DE R. L. DE C.V.",
      "telefono": "(664)  354  77  28",
      "contacto": "LIC. ROBERTO BENETT     /  LIC. MAGDALENA SOLORZANO",
      "correo_electronico": "rbenett@dialight.com       /     msolorzano@dialight.com     /       emayoral@dialight.com     /      psandoval@dialight.com",
      "giro": "INDUSTRIAL",
      "convenio": "SI",
      "comentarios": ""
    },
    {
      "no": 99,
      "empresa": "DIAMOND ELECTRONICS, S.A. DE C. V.",
      "telefono": "Teléfono (664)-660-64-53, Extensión-211 / 664 969 96 23",
      "contacto": "DIANA MARTÍNEZ - ATRACCIÓN DE TALENTO",
      "correo_electronico": "reclutamiento@diamond-electronics.com",
      "giro": "INDUSTRIAL",
      "convenio": "SI",
      "comentarios": ""
    },
    {
      "no": 100,
      "empresa": "DIRECCIÓN DE AUDITORÍA DE COMERCIO EXTERIOR",
      "telefono": "624-20-00  Ext. 22",
      "contacto": "LIC. KARLA BLANCO GARCÍA",
      "correo_electronico": "kblanco@baja.gob.mx",
      "giro": "GOBIERNO",
      "convenio": "SI",
      "comentarios": ""
    },
    {
      "no": 101,
      "empresa": "EATON INDUSTRIES, S. DE R. L. DE C.V.",
      "telefono": "(664)  978  17  34",
      "contacto": "ING. ELIZABETH TORRES GUTIÉRREZ",
      "correo_electronico": "joselherra@eaton.com",
      "giro": "INDUSTRIAL",
      "convenio": "SI",
      "comentarios": ""
    },
    {
      "no": 102,
      "empresa": "ESSILOR TIJUANA OPTICA S. DE R.L. DE C.V.",
      "telefono": "(664)  374  63  45",
      "contacto": "ING. GABRIELA ESTRADA CÁRDENAS / MARTHA DUEÑAS BELTRÁN  / ALICIA CASTRO MARTÍNEZ",
      "correo_electronico": "gestrada@essilorusa.com / rhtijuana@essilorusa.com   / prheto@essilorusa.com",
      "giro": "INDUSTRIAL",
      "convenio": "SI",
      "comentarios": ""
    },
    {
      "no": 103,
      "empresa": "ESTERLINE MEXICO S DE R.L CGC10",
      "telefono": "Tel. + 52 664 625 9144 Ext. 5147",
      "contacto": "ORLANDO GONZÁLEZ - RH GENERALIST   / LILIANA AVILA",
      "correo_electronico": "orlando.gonzalez@esterline.com / liliana.avila@esterline.com  / gardenia.sotelo@esterline.com",
      "giro": "INDUSTRIAL",
      "convenio": "SI",
      "comentarios": ""
    },
    {
      "no": 104,
      "empresa": "FEMSA S. DE R. L. DE C.V.",
      "telefono": "(664) 978-2008",
      "contacto": "ING. ESTEBAN BONILLA GARCIA  / EDITH SÁNCHEZ",
      "correo_electronico": "ebonilla@femsafab.com  / reclutamiento@femsafab.com   / necastillo@femsafab.com",
      "giro": "MANUFACTURERA",
      "convenio": "SI",
      "comentarios": ""
    },
    {
      "no": 105,
      "empresa": "FOXCONN BAJA CALIFORNIA S.A DE C.V.",
      "telefono": "(664)  627  72  00  Ext.7350",
      "contacto": "EULICE  HUERTA (ADQUISICIÓN DE TALENTO)   /ING. CLAUDIA ADRIANA BRITO AGUILERA",
      "correo_electronico": "fbc-adquisiciondetalento@foxconn.com",
      "giro": "ELECTRONICA",
      "convenio": "SI",
      "comentarios": ""
    },
    {
      "no": 106,
      "empresa": "G LUZ DE MEXICO S.A DE C.V.",
      "telefono": "(664)  134  66  25  /  (664)  333  58  24",
      "contacto": "ING. OSCAR HERNÁNDEZ AMBRIZ",
      "correo_electronico": "oscarh@g-luz.com",
      "giro": "INDUSTRIAL",
      "convenio": "SI",
      "comentarios": ""
    },
    {
      "no": 107,
      "empresa": "GAS SILZA S.A. DE C.V.",
      "telefono": "664-406-95-84 / 664-595 20 02",
      "contacto": "ARTURO GOMEZ BONIFAZ / LIZETH SANTIAGO - COORDINADORA DE RECURSOS HUMANOS / MARCO ANTONIO RODRIGUEZ",
      "correo_electronico": "rh.baja@tomza.com       /       agomez.b@tomza.com     / reclutamientobc@gassilza.com",
      "giro": "SERVICIO",
      "convenio": "SI",
      "comentarios": ""
    },
    {
      "no": 108,
      "empresa": "G-GLOBAL, S. DE R.L",
      "telefono": "(664)  134  03  02 Ext. 127",
      "contacto": "JOEL GÓMEZ  /   LIC. IRVING LEONARDO WOO REYNOSO",
      "correo_electronico": "talento@g-global.com.mx",
      "giro": "AGENCIA ADUANAL / SERVICIO",
      "convenio": "SI",
      "comentarios": ""
    },
    {
      "no": 109,
      "empresa": "GOODBABY INTERNACIONAL HOLDINFS LIMITED (EVENFLO)",
      "telefono": "(664) 689-0480 Ext. 7144",
      "contacto": "LIC. GLORIA RAMIREZ",
      "correo_electronico": "gloria.ramirez@goodbabyint.com",
      "giro": "MAQUILADORA",
      "convenio": "SI",
      "comentarios": ""
    },
    {
      "no": 110,
      "empresa": "GOODRIDGE DE MEXICO, S DE R.L DE C.V",
      "telefono": "(664) 660-8337 Ext. 12",
      "contacto": "EUGENIO ENRRIQUE TORRES ZAPIEN  / ALICIA DUARTE",
      "correo_electronico": "alicia.duarte@goodridge.com",
      "giro": "MAQUILADORA",
      "convenio": "SI",
      "comentarios": ""
    },
    {
      "no": 111,
      "empresa": "GRAPHIC PACKAGING INTERNACIONAL SERVICIOS S DE RL DE CV",
      "telefono": "Office: 664 4786300  Ext 5004",
      "contacto": "LIC. AIMEE VALDEZ     /    LIC. FAVIOLA AMADOR",
      "correo_electronico": "Aimee.Valdez@graphicpkg.com  /   faviola.amador@graphicpkg.com",
      "giro": "INDUSTRIAL",
      "convenio": "SI",
      "comentarios": ""
    },
    {
      "no": 112,
      "empresa": "GRUPO COMMART S.A DE C.V.",
      "telefono": "664-623 26 24   Ext.1",
      "contacto": "MA. IRMA HERNÁNDEZ RICO",
      "correo_electronico": "ihernadez@grupocommart.com.mx",
      "giro": "SERVICIO",
      "convenio": "SI",
      "comentarios": ""
    },
    {
      "no": 113,
      "empresa": "GRUPO FARMACEUTICO DE TIJUANA S.A DE C.V.",
      "telefono": "(664) 123-3261",
      "contacto": "IDALIA JANETH DECENA TORRES / LAE. GERARDO CECILIO LUNA GONZALEZ",
      "correo_electronico": "idecena@gft.mx  / rgomez@gft.mx",
      "giro": "SALUD",
      "convenio": "SI",
      "comentarios": ""
    },
    {
      "no": 114,
      "empresa": "GRUPO OPTIMA S.A DE C.V",
      "telefono": "900  95  00  Ext.  127",
      "contacto": "LIC. LIZBETH GODINEZ FIGUEROA",
      "correo_electronico": "lgodinez@gpoptima.com",
      "giro": "COMERCIAL",
      "convenio": "SI",
      "comentarios": ""
    },
    {
      "no": 115,
      "empresa": "GRUPO LALA",
      "telefono": "665-654-26-37",
      "contacto": "LIC. MARIO HÉCTOR GORIBAR PORTUGAL",
      "correo_electronico": "mario.goribar@grupolala.com",
      "giro": "COMERCIAL",
      "convenio": "N/A",
      "comentarios": ""
    },
    {
      "no": 116,
      "empresa": "HAEMONETICS MEXICO MANUFACTURING S DE R.L DE C.V",
      "telefono": "664-969-1559",
      "contacto": "LIC. JESSICA A. CHÁVEZ P.   (RECRUITER, RPO)",
      "correo_electronico": "jessica.chavez@haemonetics.com",
      "giro": "INDUSTRIA",
      "convenio": "SI",
      "comentarios": ""
    },
    {
      "no": 117,
      "empresa": "HARMAN DE MÉXICO, S. DE R.L. DE C.V.",
      "telefono": "Phone Office MX: +52 664 423 1404 ext 1191404",
      "contacto": "LIC. BIANCA MARTINEZ  / C.P. LETICIA MERINO LOPEZ",
      "correo_electronico": "bianca.martinez@harman.com/ vacantes@harman.com  / leticia.merino@harman",
      "giro": "INDUSTRIAL",
      "convenio": "SI",
      "comentarios": ""
    },
    {
      "no": 118,
      "empresa": "HAZ DOBLE CLICK",
      "telefono": "664-318-50-62",
      "contacto": "ROLANDO FAJARDO",
      "correo_electronico": "rolando@hazdobleclik.com",
      "giro": "SERVICIOS",
      "convenio": "SI",
      "comentarios": ""
    },
    {
      "no": 119,
      "empresa": "HERRAMIENTAS ESTANDAR DE MEXICO S.A DE C.V.",
      "telefono": "6646072522 Ext. 1008",
      "contacto": "ARELY ESPINOZA / JEFE DE RECURSOS HUMANOS",
      "correo_electronico": "hrpayroll@lewistools.com",
      "giro": "INDUTRIAL",
      "convenio": "N/A",
      "comentarios": ""
    },
    {
      "no": 120,
      "empresa": "HISENSE ELECTRONICA MÉXICO, S.A. DE C.V",
      "telefono": "(661) 613-5510 Ext. 5022",
      "contacto": "TOBERTO TADEO",
      "correo_electronico": "roberto.tadeo@hisense.com",
      "giro": "INDUSTRIAL",
      "convenio": "SI",
      "comentarios": ""
    },
    {
      "no": 121,
      "empresa": "HITACHI CONSUMER PRODUCTS DE MEXICO, S.A. DE C.V",
      "telefono": "(664) 623-3111/623",
      "contacto": "LIC. CESAR FRANCO",
      "correo_electronico": "cesar.franco@hhea.hitachi.com",
      "giro": "MAQUILADORA (EXPORT)",
      "convenio": "SI",
      "comentarios": ""
    },
    {
      "no": 122,
      "empresa": "HONEYWELL SPERIAN HEARING PROTECTION DE MEXICO, S.A DE C.V.",
      "telefono": "901  32  13",
      "contacto": "LIC. LESLIE DELGADO",
      "correo_electronico": "Leslie.delgadogutierrez@honeywell.com   / leslie.delgado@prouniversitaria.org",
      "giro": "INDUSTRIAL",
      "convenio": "SI",
      "comentarios": ""
    },
    {
      "no": 123,
      "empresa": "HYUNDAI DE MÉXICO S.A DE C.V",
      "telefono": "(664) 645-0130 Ext. 2231",
      "contacto": "LIC. OMAR OCAMPO / HECTOR CORRALES",
      "correo_electronico": "omaro@hyundaitranslead.com / omaro@translead.com",
      "giro": "MAQUILADORA (EXPORT)",
      "convenio": "SI",
      "comentarios": ""
    },
    {
      "no": 124,
      "empresa": "IMPRESIÓN PROMOCIÓNAL, S DE R.L DE C.V",
      "telefono": "608-15-60",
      "contacto": "EDUARDO DOMÍNGUEZ BARRETT",
      "correo_electronico": "ventas@impresionpromocional.com              / servicioalcliente@impresionpromocional.com",
      "giro": "SERVICIO",
      "convenio": "SI",
      "comentarios": ""
    },
    {
      "no": 125,
      "empresa": "INSDUSTRIA QUÍMICA JOZEL",
      "telefono": "664 624 8494",
      "contacto": "RECLUTAMIENTO",
      "correo_electronico": "contacto@quimicajozel.mx",
      "giro": "INDUSTRIA",
      "convenio": "N/A",
      "comentarios": ""
    },
    {
      "no": 126,
      "empresa": "INDUSTRIAS HUNTER S DE R.L DE C.V",
      "telefono": "6643870322 / 903  13  26",
      "contacto": "CONNIE ALVARADO TOVAR / DULCE MALFAVON     /     ANA GABRIELA QUIÑONES CARDENAS",
      "correo_electronico": "connie.alvarado@hunterindustries.com    /     dulce.malfavon@hunterindustries.com    /     ana.quinones@hunterindustries.com",
      "giro": "INDUSTRIAL",
      "convenio": "SI",
      "comentarios": ""
    },
    {
      "no": 127,
      "empresa": "INTEGRACIÓN ADUANAL, S.C.",
      "telefono": "(664) 624-3678 Ext. 108",
      "contacto": "LORENZO RUVALCABA PAREDES",
      "correo_electronico": "administracion@integracionaduanal.com",
      "giro": "SERVICIOS",
      "convenio": "SI",
      "comentarios": ""
    },
    {
      "no": 128,
      "empresa": "JACUZZI DE MÉXICO S. A. DE C.V",
      "telefono": "(664)   615  42  00",
      "contacto": "LILIANA VALDEZ (HUMAN RESOURCE )   /  LIC. SONIA FLORES",
      "correo_electronico": "Liliana.Valdez@jacuzzi.com  /           sonia.flores@jacuzzi.com           / reclutamiento@jacuzzi.com",
      "giro": "MAQUILADORA (ESPORT)",
      "convenio": "SI",
      "comentarios": ""
    },
    {
      "no": 129,
      "empresa": "JAE TIJUANA S.A. DE C.V.",
      "telefono": "689  74  84  Ext. 666",
      "contacto": "LIC. KARLA VARGAS V        /    LIC. MARLENE ALYIRA ALVARADO CASTAÑON",
      "correo_electronico": "kvargas@jaeoregon.com     /  malvarado@jaeoregon.com",
      "giro": "MAQUILADORA (EXPORT)",
      "convenio": "SI",
      "comentarios": ""
    },
    {
      "no": 130,
      "empresa": "KYOCERA MEXICANA S.A DE C.V.",
      "telefono": "664-682-0111   Ext. 4385",
      "contacto": "JORGE L. ROCHIN",
      "correo_electronico": "Jorge.Rochin@kyocera.com  /  Mario.Vazquez@kyocera.com",
      "giro": "INDUSTRIAL",
      "convenio": "SI",
      "comentarios": ""
    },
    {
      "no": 131,
      "empresa": "LABORATORIO AMBIENTAL SIGMA S. DE R. L. DE C.V.",
      "telefono": "(664)  647  52  08 / Ext. 15",
      "contacto": "DR. ENRIQUE GARCIA FLORES  / KARLA GUADIANA",
      "correo_electronico": "info@sigmalab.com.mx / guadianak@sigmalab.com.mx",
      "giro": "SERVICIO",
      "convenio": "SI",
      "comentarios": ""
    },
    {
      "no": 132,
      "empresa": "LABORATORIOS SCANTIBODIES S.A DE C.V",
      "telefono": "(665) 655-5134   // ext. 6112",
      "contacto": "CRISTINA ANGUIANO (GERENTE DE RECURSOS HUMANOS) /// MICHELLE NAVARRO",
      "correo_electronico": "cristina.anguiano@scantibodies.com///Michelle.Navarro@scantibodies.com/ reclutamiento@scantibodies.com",
      "giro": "MAQUILADORA (EXPORT.)",
      "convenio": "SI",
      "comentarios": ""
    },
    {
      "no": 133,
      "empresa": "LANDSBERG ORORA DE MÉXICO S.A DE C.V",
      "telefono": "(664)  623  81  00  Ext. 3206",
      "contacto": "SANDY GUTIÉRREZ (HUMAN RESOURCES)   /  DENISSE BARRETO",
      "correo_electronico": "denisse.barreto@landsberg.com//sandy.gutierrez@landsberg.com   /    vacantes.mexico@ladsberg.com",
      "giro": "MAQUILADORA  (EXPORT)",
      "convenio": "SI",
      "comentarios": ""
    },
    {
      "no": 134,
      "empresa": "LEACH INTERNATIONAL MÉXICO, S DE R.L DE C.V",
      "telefono": "664-231-81-33",
      "contacto": "LIC. ADRIANA AYALA   (HR GENERALIST)",
      "correo_electronico": "adriana.ayala@leachcorp.com",
      "giro": "INDUSTRIA",
      "convenio": "SI",
      "comentarios": ""
    },
    {
      "no": 135,
      "empresa": "LOC-JACK, S.A DE C.V",
      "telefono": "664-623-17-77  Ext. 112",
      "contacto": "LIC. KARLA MOJARRO",
      "correo_electronico": "coordinacion.do@loc-jack.com",
      "giro": "SERVICIO",
      "convenio": "SI",
      "comentarios": ""
    },
    {
      "no": 136,
      "empresa": "LP BOND INVESTIGACIONES Y DESARROLLO DEL TERCER MILENIO S.A DE C.V",
      "telefono": "664-608-33-40",
      "contacto": "ING. SERGIO TELLEZ / LIC. MARCO ALFONSO LEPE CISNEROS",
      "correo_electronico": "checotp@gmail.com / marco@imgrafeno.com  /   info@lpbond.com",
      "giro": "COMERCIAL",
      "convenio": "SI",
      "comentarios": ""
    },
    {
      "no": 137,
      "empresa": "MACFA AUTOMATIZACIÓN",
      "telefono": "Oficina: 664-378-78-98 Cel: 664-308-22-12",
      "contacto": "ANTONIO CASTRO  (PROJECT TEAM LEADER)",
      "correo_electronico": "antonio@macfa.mx",
      "giro": "INDUSTRIA",
      "convenio": "N/A",
      "comentarios": ""
    },
    {
      "no": 138,
      "empresa": "MAM DE LA FRONTERA S.A. DE C. V",
      "telefono": "01-664-681 14 00 Ext.6433",
      "contacto": "ING. SALOMON LÓPEZ LORENZO",
      "correo_electronico": "slopez@tacna.net / bolsadetrabajo@tacna.net",
      "giro": "INDUSTRIAL",
      "convenio": "SI",
      "comentarios": ""
    },
    {
      "no": 139,
      "empresa": "MANGUERAS Y CONECCIONES VILLA S.A DE C.V.",
      "telefono": "903  29  24",
      "contacto": "ING. ALEJANDRA GODOY NAVARRO",
      "correo_electronico": "a_godoy@manguerasyconeccionesvilla.com",
      "giro": "COMERCIO",
      "convenio": "SI",
      "comentarios": ""
    },
    {
      "no": 140,
      "empresa": "MANITOWOC TJ S DE R.L DE C.V",
      "telefono": "(664)  969  27  00  Ext. 2716 y 2717",
      "contacto": "LIC. MAURICIO GONZÁLEZ RAMOS",
      "correo_electronico": "diana.alatorre@welbilt.com  / mauricio.gonzalez@welbilt.com",
      "giro": "INDUSTRIAL",
      "convenio": "SI",
      "comentarios": ""
    },
    {
      "no": 141,
      "empresa": "MEDIMEXICO, S. DE R.L. DE C.V.",
      "telefono": "(664)  391  15  00",
      "contacto": "ALEJANDRA RÁBAGO  /   ALEJANDRA TORRES",
      "correo_electronico": "contrataciones@fmc-na.com   / alejandra.torres@fmc-na.com /    noe.fong@fmc-na.com",
      "giro": "MAQUILADORA  (EXPORT)",
      "convenio": "SI",
      "comentarios": ""
    },
    {
      "no": 142,
      "empresa": "MEDTRONIC MÉXICO ,S DE R.L. DE C.V.",
      "telefono": "664-903 11  00",
      "contacto": "M.C  ANGEL IVAN MALDONADO SANDEZ  /  ING VICTOR MANUEL AGUIRRE ROSAS",
      "correo_electronico": "angel.ivan.maldonado@medetronic.com     /           rs.htijuanaresumes@medtronic.com  /  dnieto@experis.mx      /  victor.m.aguirre@medtronic.com",
      "giro": "INDUSTRIAL",
      "convenio": "SI",
      "comentarios": ""
    },
    {
      "no": 143,
      "empresa": "MERIT STAMPING, S DE R.L DE C.V",
      "telefono": "(664) 607 27  86  Ext. 101",
      "contacto": "ING. ULISES ANGULO MORA///   JUAN JOSE ARIAS (QA Manager)",
      "correo_electronico": "J.Arias@MERITALUMINUM.COM /berenice.ojeda@meritstamping.com",
      "giro": "INDUSTRIAL",
      "convenio": "SI",
      "comentarios": ""
    },
    {
      "no": 144,
      "empresa": "MEXHON, S. DE R.L DE C.V.",
      "telefono": "925  84  84  Ext. 1586",
      "contacto": "ING. JOSÉ DE JESÚS CAMACHO GÓMEZ   / LESLIE DELGADO  /  PAOLA OLMOS ARROYO",
      "correo_electronico": "josé.camacho@resideo.com   /   Leslie.delgadogutierrez@honeywell.com   /  Paola.OlmosArroyo@Honeywell.com",
      "giro": "INDUSTRIAL",
      "convenio": "SI",
      "comentarios": ""
    },
    {
      "no": 145,
      "empresa": "MONTECITOS MANUFACTURING S DE R.L DE C.V.",
      "telefono": "(664)  518  02  25",
      "contacto": "ING. JOSE ALFREDO TORRES MONTOYA",
      "correo_electronico": "atorres@montecitosmfg.com",
      "giro": "MANUFACTURA",
      "convenio": "N/A",
      "comentarios": ""
    },
    {
      "no": 146,
      "empresa": "MORGAN POLYMER SEALS S DE R.L DE C.V",
      "telefono": "(664) 625-5835 Ext. 140",
      "contacto": "ADRIAN ELOY RÍOS   / ING. AUDIEL OLEGARIO LOPEZ VAZQUEZ",
      "correo_electronico": "arios@morganpolymerseals.com   / audilopez@montecitosmfg.com",
      "giro": "INDUSTRIAL",
      "convenio": "SI",
      "comentarios": ""
    },
    {
      "no": 147,
      "empresa": "MORZAN CORPORATIÓN S.A DE C.V.",
      "telefono": "664-689 07 70  Ext.106  Mexicali al +52 (686) 592 1000",
      "contacto": "JAVIER SANDOVAL     /     LIC. GLAFIRA ROMERO TRUJILLO / ESTANISLAO VIZCARRA  LARIOS",
      "correo_electronico": "javier.sandoval@morzan.com     /          glafira.romero@morzan.com  /  estanislao.vizcarra@morza.com",
      "giro": "SERVICIO",
      "convenio": "SI",
      "comentarios": ""
    },
    {
      "no": 148,
      "empresa": "NANKAI MEXICO S.A DE C.V",
      "telefono": "(664)  168  39  94",
      "contacto": "ING. JUAN JOSE MACHUCA    /  ING. ANGEL AGUIRRE ALMEIDA  / LIC. MIRIAM RAMIREZ",
      "correo_electronico": "juanmachu@nket.net   /   angel@nket.net   /     miriam @nket.net",
      "giro": "INDUSTRIAL",
      "convenio": "SI",
      "comentarios": ""
    },
    {
      "no": 149,
      "empresa": "NEXT  IT INOVATION S DE RL DE CV",
      "telefono": "664-622 76 50",
      "contacto": "IVONNE RODRIGUEZ R.  / ADALBERTO CISNEROS",
      "correo_electronico": "mira@nextevelip.com   / adci@nextlevelip.com",
      "giro": "SERVICIO",
      "convenio": "SI",
      "comentarios": ""
    },
    {
      "no": 150,
      "empresa": "NIELSEN MÉXICO SERVICES, S. R. L. DE C.V.",
      "telefono": "(664)  689  38  24",
      "contacto": "EDGAR IVÁN SÁNCHEZ ÁLVARES",
      "correo_electronico": "nielsencomunications@nielsen.com",
      "giro": "SERVICIO",
      "convenio": "SI",
      "comentarios": ""
    },
    {
      "no": 151,
      "empresa": "NISHINIHON SHOKO S.A. DE C.V.",
      "telefono": "(664) 625-5670",
      "contacto": "MARI. ANGEL CASTAÑEDO CORNELEO   /  JANETH OROZCO HERNANDEZ",
      "correo_electronico": "recursoshumanos@nishinihon.us",
      "giro": "INDUSTRIAL",
      "convenio": "SI",
      "comentarios": ""
    },
    {
      "no": 152,
      "empresa": "NORT AMERICA PRODUCTION SHARING MÉXICO S.A DE C.V.",
      "telefono": "(664)  969  47  73",
      "contacto": "ISAÍ RUIZ   (Indirect Recruitment Assistant)  /  MELISSA QUIÑONEZ    /   GISELLE ALEJANDRA PATRON BENITEZ",
      "correo_electronico": "isai.ruiz@napsmexico.com   /     melissa.quinonez@napsmexico.com   /   giselle.patron@napsmexico.com",
      "giro": "SERVICIO",
      "convenio": "SI",
      "comentarios": ""
    },
    {
      "no": 153,
      "empresa": "NPA DE MÉXICO S DE R.L DE C.V",
      "telefono": "664-134-3353 Ext 3353 /   664-231-37-00",
      "contacto": "ING. YESENIA CORTEZ     /    ING. ISAAC GAMBOA  /   ING. JUAN RAMSES RIVAS MENDOZA",
      "correo_electronico": "yesenia.cortez@nypro.com    /   isaac.gamboa@nypro.com  / ramses.rivas@nypro.com  / hr.talento@nypro.com",
      "giro": "INDUSTRIAL",
      "convenio": "SI",
      "comentarios": ""
    },
    {
      "no": 154,
      "empresa": "ODU MEXICO MANUFACTURING, S DE R.L DE C.V",
      "telefono": "(664) 617-6803",
      "contacto": "EDGAR AGUILAR  (SUPERVISOR DE RH)",
      "correo_electronico": "edgar.aguilar@tecma.com",
      "giro": "INDUSTRIAL",
      "convenio": "SI",
      "comentarios": ""
    },
    {
      "no": 155,
      "empresa": "OSSUR MÉXICO S DE R.L DE C.V",
      "telefono": "(664) 231-6445",
      "contacto": "LIC. ALEJANDRO PIÑA",
      "correo_electronico": "jorivera@ossur.com    /   talento@ossur.com",
      "giro": "INDUSTRIAL",
      "convenio": "SI",
      "comentarios": ""
    },
    {
      "no": 156,
      "empresa": "PAGASA S.A DE C.V",
      "telefono": "Tel. 6086024",
      "contacto": "ANA GUILLERMINA RODRIGUEZ CALVO  /  CLAUDIA MUÑOZ",
      "correo_electronico": "grodriguez@pagasa.com.mx   /    rechum@pagasa.com.mx",
      "giro": "MANUFACTURERA",
      "convenio": "SI",
      "comentarios": ""
    },
    {
      "no": 157,
      "empresa": "PANASONIC AMPLIANCES REGRIGERATION SYSTEMS DE MÉXICO S.A DE C.V",
      "telefono": "Tel. (664) 623-33-09   Ext. 6155",
      "contacto": "LIC. NAYELI RODRIGUEZ GONZÁLEZ",
      "correo_electronico": "nayeli.rodriguez@us.panasonic.com",
      "giro": "INDUSTRIAL",
      "convenio": "SI",
      "comentarios": ""
    },
    {
      "no": 158,
      "empresa": "PANASONIC ECOLOGY SYSTEMS DE MÉXICO S.A DE C.V",
      "telefono": "(664) 647-4600 Ext. 2294",
      "contacto": "OSUNA BOGARIN OSCAR // CLAUDIA GUTIERREZ",
      "correo_electronico": "Oscar.Osuna@us.panasonic.com     Claudia.Gutierrez@us.panasonic.com",
      "giro": "INDUSTRIAL",
      "convenio": "SI",
      "comentarios": ""
    },
    {
      "no": 159,
      "empresa": "PETERSON TOOLS ENGINEERING (SANDRA ALICIA GOMEZ RUIZ)",
      "telefono": "664-331-76-28",
      "contacto": "SANDRA ALICIA GOMEZ RUIZ",
      "correo_electronico": "sgomez@petersontools.com.mx",
      "giro": "INDUSTRIAL",
      "convenio": "SI",
      "comentarios": ""
    },
    {
      "no": 160,
      "empresa": "PEUGEOT MÉXICO, S.A DE C.V.",
      "telefono": "6,646,073,146",
      "contacto": "KARINA SÁNCHEZ    /    ENRIQUE SÁNCHEZ SILVA",
      "correo_electronico": "karina.sanchez@peugeottersa.com.mx   /    enrique.sanchez@peugeottersa.com",
      "giro": "INDUSTRIAL",
      "convenio": "SI",
      "comentarios": ""
    },
    {
      "no": 161,
      "empresa": "PHILIPS LIGHTING ELECTRONICS MÉXICO SA DE CV",
      "telefono": "(664) 211 6336",
      "contacto": "CARMEN HEREDIA B.  / GABRIELA HERNÁNDEZ",
      "correo_electronico": "carmen.heredia@signify.com",
      "giro": "INDUSTRIAL",
      "convenio": "SI",
      "comentarios": ""
    },
    {
      "no": 162,
      "empresa": "PLANTONICS MEXICO - PLAMEX, S.A. DE C.V.",
      "telefono": "(664)  647  48  00",
      "contacto": "ING. MARIO ALEJANDRO TIRADO MANZANO",
      "correo_electronico": "armando.morales@poly.com",
      "giro": "INDUSTRIAL",
      "convenio": "SI",
      "comentarios": ""
    },
    {
      "no": 163,
      "empresa": "PLASTICOS BAJACAL S.A DE C.V",
      "telefono": "(664)  375  86  52",
      "contacto": "ING. ALFREDO PÉREZ SOLÍS /  MARCELA CERON ALFEREZ",
      "correo_electronico": "alfredo.perez@mainetti.com    /   maricela.ceron@mainetti.com",
      "giro": "INDUSTRIAL",
      "convenio": "SI",
      "comentarios": ""
    },
    {
      "no": 164,
      "empresa": "PLUMA NACIONAL S.A DE C.V.",
      "telefono": "211  62  00 Ext. 6235",
      "contacto": "MELODY VÁZQUEZ  (TALENT ACQUISITION SUP)",
      "correo_electronico": "melody.vazquez@pens.com",
      "giro": "INDUSTRIAL",
      "convenio": "SI",
      "comentarios": ""
    },
    {
      "no": 165,
      "empresa": "PLUS CONNECT",
      "telefono": "686-554-54-24",
      "contacto": "LIC. ROSY RAZO",
      "correo_electronico": "rosyrazo@plusconnect.com.mx",
      "giro": "SERVICIO",
      "convenio": "N/A",
      "comentarios": ""
    },
    {
      "no": 166,
      "empresa": "POSEY S DE R.L DE C.V",
      "telefono": "(664)  969  87  37  Ext. 7517",
      "contacto": "MÓNICA RAMÍREZ NAVARRO  / ANGELES DOMINGUEZ",
      "correo_electronico": "monramirez@tidiproducts.com   / adominguez@tidiproducts.com",
      "giro": "INDUSTRIA",
      "convenio": "SI",
      "comentarios": ""
    },
    {
      "no": 167,
      "empresa": "POWER SONIC, S.A DE C.V",
      "telefono": "1643400 ext 389",
      "contacto": "SOLEDAD AMAYA  (RECURSOS HUMANOS)    /     LIC. MARIBEL BALDERAS",
      "correo_electronico": "soledad.Amaya@enersys.com /   talento-mx@power-sonic.com",
      "giro": "INDUSTRIAL",
      "convenio": "SI",
      "comentarios": ""
    },
    {
      "no": 168,
      "empresa": "PRIME WHEEL MÉXICO S DE R.L DE C.V",
      "telefono": "Mx (664) 134 2100 Ext. 2638",
      "contacto": "MARINA ELIZABTH  BERMÚDEZ GARCÍA  NETWORK AND SYSTEMS",
      "correo_electronico": "mbermudez@primewheel.com",
      "giro": "INDUSTRIAL",
      "convenio": "SI",
      "comentarios": ""
    },
    {
      "no": 169,
      "empresa": "PROCESOS METALICOS CALIFORNIA, S.A DE C.V",
      "telefono": "(664) 134-2100 Ext. 2158",
      "contacto": "LIC. NUBIA CUEVAS CENICEROS",
      "correo_electronico": "nubiac@ssp-inc.net",
      "giro": "INDUSTRIAL",
      "convenio": "SI",
      "comentarios": ""
    },
    {
      "no": 170,
      "empresa": "PJ KOREA",
      "telefono": "N/A",
      "contacto": "ING. RAUL HERNANDEZ",
      "correo_electronico": "pjraul191@gmail.com",
      "giro": "INDUSTRIAL",
      "convenio": "N/A",
      "comentarios": ""
    },
    {
      "no": 171,
      "empresa": "BG CONSULTING",
      "telefono": "664-437-95-97",
      "contacto": "LIC. TANIA MORA       /       MARIO CORTES",
      "correo_electronico": "tania.mora@bgc.com       /         mario.cortes@bgc.mx",
      "giro": "SERVICIO",
      "convenio": "SI",
      "comentarios": ""
    },
    {
      "no": 172,
      "empresa": "PRODUCTO ELÉCTRICO DE TIJUANA S.A DE C.V",
      "telefono": "6879002  Ext. 5002",
      "contacto": "LIC. SARA J. GIL",
      "correo_electronico": "sara.gil@grupopetsa.com",
      "giro": "COMERCIO",
      "convenio": "SI",
      "comentarios": ""
    },
    {
      "no": 173,
      "empresa": "PRODUCTOS DIAMOND, S.A. DE C.V.",
      "telefono": "(664) 686-8215",
      "contacto": "ING. LUIS TORRES SANTILLAN",
      "correo_electronico": "luists@diamcers.com",
      "giro": "SERVICIO",
      "convenio": "SI",
      "comentarios": ""
    },
    {
      "no": 174,
      "empresa": "R Y R SERVICIOS ADUANALES S. C.",
      "telefono": "(664) 607-0676 Ext. 117 / 102",
      "contacto": "EDNA CORONADO CARVAJAL / LIC. NUBIA ESPINOZA MORALES",
      "correo_electronico": "edna.coronado@ryrservicios.com / contabilidad.tijuana@ryrservicios.com",
      "giro": "SERVICIOS ADUANALES",
      "convenio": "SI",
      "comentarios": ""
    },
    {
      "no": 175,
      "empresa": "RIVER MANUFACTURING INTERNATIONAL DE MÉXICO, S. DE R.L DE C.V",
      "telefono": "(664) 624-9495",
      "contacto": "DENISSE MEDINA",
      "correo_electronico": "rhriver@mxrivermfg.com",
      "giro": "MANUFACTUR",
      "convenio": "SI",
      "comentarios": ""
    },
    {
      "no": 176,
      "empresa": "RSI HOME PRODUCTS S DE RL DE CV",
      "telefono": "689  37  08  Ext. 6767",
      "contacto": "BOGAR CEDANO  /  IMEC OMAR ACOSTA BALDENEBRO",
      "correo_electronico": "vacantesrsi@rsihomeproducts.com   /  obaldenebro@rsihomeproducts.com",
      "giro": "COMERCIAL",
      "convenio": "SI",
      "comentarios": ""
    },
    {
      "no": 177,
      "empresa": "RSI MÉXICO, S. DE R.L. DE C.V.",
      "telefono": "(664) 215-0679 Ext. 1151",
      "contacto": "LIC. MARTHA GÓMEZ  /  ALEXIS LÓPEZ | Supervisor de Tráfico y Lógistica",
      "correo_electronico": "marthag@rsimexico.com   /   trafico01tj@rsimexico.com",
      "giro": "INDUSTRIAL",
      "convenio": "SI",
      "comentarios": ""
    },
    {
      "no": 178,
      "empresa": "RSM MEXICO BOGARIN S.C.",
      "telefono": "(664) 634-6562",
      "contacto": "ARACELI GARCÍA    /   ING. MAGDIEL HERNANDEZ NUÑEZ/ SUPERVISORA DEL DPTO. DE COMERCIO EXTERIOR",
      "correo_electronico": "recepcion.tijuana@rsmmx.mx      /        magdiel.hernandez@rsmmx.mx",
      "giro": "INDUSTRIAL",
      "convenio": "SI",
      "comentarios": ""
    },
    {
      "no": 179,
      "empresa": "REFACCIONES Y AUTOMATIZACIONES INDUSTRIALES",
      "telefono": "Oficina (664) 3833175",
      "contacto": "JOSÉ MANUEL ORTEGA DELGADILLO",
      "correo_electronico": "a.refaccionesindustriales@gmail.com",
      "giro": "INDUSTRIAL",
      "convenio": "N/A",
      "comentarios": ""
    },
    {
      "no": 180,
      "empresa": "SAFRAN",
      "telefono": "T +52 (664) 626 05 55, Ext. 6343",
      "contacto": "CANDY CANALES (HUMAN RESOURCES)",
      "correo_electronico": "Candy.canales@safrangroup.com",
      "giro": "INDUSTRIAL",
      "convenio": "SI",
      "comentarios": ""
    },
    {
      "no": 181,
      "empresa": "SAFARILAND INTERNACIONAL S.A.DE C.V.",
      "telefono": "(664) 134-4700 Ext. 165073",
      "contacto": "ING. JECSAN NAJERA GARCIA / INGENIERO DE MANUFACTURA",
      "correo_electronico": "jecsan.najera@safariland.com/reclutamiento@safariland.com",
      "giro": "MAQUILADORA (EXPORT)",
      "convenio": "SI",
      "comentarios": ""
    },
    {
      "no": 182,
      "empresa": "SAINT-GOBAIN MERIT, S. DE R.L. DE C.V.",
      "telefono": "664-625-41-68",
      "contacto": "LIC. EN PSIC. NOHEMA PARRA (Analista JR. Recursos Humanos)",
      "correo_electronico": "nohema.parra@saint-gobain.com",
      "giro": "MAQUILADORA (EXPORT)",
      "convenio": "SI",
      "comentarios": ""
    },
    {
      "no": 183,
      "empresa": "SAMSUNG MEXICANA S.A DE C.V",
      "telefono": "(664)  903  17  66",
      "contacto": "JACQUELINE ESPINOZA",
      "correo_electronico": "ja.espinoza@samsung.com",
      "giro": "INDUSTRIAL",
      "convenio": "SI",
      "comentarios": ""
    },
    {
      "no": 184,
      "empresa": "SAMSUNG SDI, MEXICO S.A DE C.V",
      "telefono": "(664) 627-6231",
      "contacto": "LIC. ADRIANA CARDENAS PÉREZ   /  LIC. JUNESEOB YOON",
      "correo_electronico": "adriana.cp@samsung.com   / junes.yoon@samsung.com",
      "giro": "INDUSTRIAL",
      "convenio": "SI",
      "comentarios": ""
    },
    {
      "no": 185,
      "empresa": "SANKO ELECTRÓNICA MÉXICO, S.A. DE C.V.",
      "telefono": "(664)  231  74  20  Ext.  105",
      "contacto": "ING. JESÚS JAVIER TRUJILLO VASQUEZ    /   ING. JESÚS ALEJANDRO OLIVAS PACHECO  (ING)",
      "correo_electronico": "javier.trujillo@berry.net    /  atencion@sankoelec.com",
      "giro": "INDUSTRIAL",
      "convenio": "SI",
      "comentarios": ""
    },
    {
      "no": 186,
      "empresa": "SCHLAGE DE MEXICO S.A DE C.V",
      "telefono": "664-635-51-43",
      "contacto": "LIC. OSCAR BLANCO",
      "correo_electronico": "oscar.blanco@allegion.com",
      "giro": "INDUSTRIAL",
      "convenio": "SI",
      "comentarios": ""
    },
    {
      "no": 187,
      "empresa": "SEAL FOR LIFE INDUSTRIES MÉXICO S DE R.L DE C.V (BERRY GLOBAL)",
      "telefono": "(664) 647-4300",
      "contacto": "SOCORRO GÓMEZ JARAMILLO",
      "correo_electronico": "Socorro.Gomez@sealforlife.com ////socorrogomez@berryglobal.com",
      "giro": "INDUSTRIAL",
      "convenio": "SI",
      "comentarios": ""
    },
    {
      "no": 188,
      "empresa": "SEI AUTOMATION S. DE R.L. DE C.V.",
      "telefono": "(664)  625  67  00",
      "contacto": "ING. ADOLFO VENEGAS PERAZA",
      "correo_electronico": "adolfo.venegas@seiautomation.net",
      "giro": "INDUSTRIAL",
      "convenio": "SI",
      "comentarios": ""
    },
    {
      "no": 189,
      "empresa": "SEQUOIA MARKETING / HUMBERTO AMADOR PINEDA",
      "telefono": "(664)  191  89  52",
      "contacto": "ING. ROLANDO FAJARDO HERRERA",
      "correo_electronico": "ventas@sequoiamarketing.mx",
      "giro": "SERVICIO",
      "convenio": "SI",
      "comentarios": ""
    },
    {
      "no": 190,
      "empresa": "SERENA Y ASOCIADOS, S.C",
      "telefono": "(664) 647-2228 Ext. 118",
      "contacto": "LIC. MIREILE SERENA / LIC. BRIAN OMAR ANDRADE FAVELA",
      "correo_electronico": "mireilleserena@aaserana.com  / revision@aaserana.com",
      "giro": "SERVICIO",
      "convenio": "SI",
      "comentarios": ""
    },
    {
      "no": 191,
      "empresa": "SERVINDTEC S. de R. L. de C.V.",
      "telefono": "(664)  980  81  12",
      "contacto": "TSU. CÉSAR NOEL MACÍAS SÁNCHEZ",
      "correo_electronico": "alondra.hernandez@servindtec.com",
      "giro": "INDUSTRIAL",
      "convenio": "SI",
      "comentarios": ""
    },
    {
      "no": 192,
      "empresa": "SIGMA INK S DE R.L DE C.V",
      "telefono": "635-28-94",
      "contacto": "MDF.STHEFANY PÉREZ",
      "correo_electronico": "shipping@sigmainks.com",
      "giro": "INDUSTRIA",
      "convenio": "N/A",
      "comentarios": ""
    },
    {
      "no": 193,
      "empresa": "SILGAN DISPENSING SYSTEM OPERADORA, S. DE R. L. C.V.",
      "telefono": "(664)  626  83  05  Ext.  102",
      "contacto": "MÓNICA VÁZQUEZ  (HR)  /    JOSE ADRIAN ROBLES",
      "correo_electronico": "monica.diaz@silgandispensing.com    / joseadrian.robles@silgandispensing.com",
      "giro": "MAQUILADORA (EXPORT)",
      "convenio": "SI",
      "comentarios": ""
    },
    {
      "no": 194,
      "empresa": "SISTEMAS MÉDICOS ALARIS S.A DE C.V",
      "telefono": "627  82  01",
      "contacto": "LIC. CYNTIA CEJA   /      ING. JOSE VALENTIN TORRES NEBUAY   /    ZULEMA GARCÍA /",
      "correo_electronico": "sistemasmedicosalaris@bd.com  /    jose.torres1@bd.com    / reclutamiento.personal@carefusion.com",
      "giro": "INDUSTRIAL",
      "convenio": "SI",
      "comentarios": ""
    },
    {
      "no": 195,
      "empresa": "SMITHS CONEXIÓN DE MEXICO S.A. DE C.V.",
      "telefono": "211  07  54   y  211  07  50",
      "contacto": "RAUL YAIR GERMAN ACOSTA",
      "correo_electronico": "raul.german@co-production.net",
      "giro": "MAQUILADORA",
      "convenio": "SI",
      "comentarios": ""
    },
    {
      "no": 196,
      "empresa": "SMK ELECTRONICA S.A DE C.V.",
      "telefono": "(664) 625-9680 Ext. 2201",
      "contacto": "LIC. ARELI RIESTRA    /      LIC. CLAUDIA VALERIA CASTRO ACEVES",
      "correo_electronico": "ariestra@smkusa.com       /         ccastro@smkusa.com",
      "giro": "INDUSTRIAL",
      "convenio": "SI",
      "comentarios": ""
    },
    {
      "no": 197,
      "empresa": "SPORTE INDUSTRIAL Y COMERCIAL, S. DE R. L.",
      "telefono": "(664)  381  75  26",
      "contacto": "ALFREDO RAMÍREZ REYES/  DALIA ABIGAIL PRADO LOZANO    /  ING. JORGE ADRIÁN FÉLIX LÓPEZ",
      "correo_electronico": "ateran@gmail.com   / dprado@maisind.com   /  ateran@maisind.com",
      "giro": "MAQUILADORA",
      "convenio": "SI",
      "comentarios": ""
    },
    {
      "no": 198,
      "empresa": "SPRINGS WINDOW FASHIONS DE TIJUANA, S. DE R.L. DE C.V.",
      "telefono": "(664) 684-4085 Ext. 8045",
      "contacto": "LIC. LENNIA MORA",
      "correo_electronico": "lennia.mora@springswindowfashions.com",
      "giro": "MAQUILADORA",
      "convenio": "SI",
      "comentarios": ""
    },
    {
      "no": 199,
      "empresa": "ST. JOHN DE MÉXICO, S.A. DE C.V.",
      "telefono": "(664) 478-9232",
      "contacto": "LIC. SOLEDAD MENDOZA   /  LIC. RUBÉN VILLARREAL,",
      "correo_electronico": "soledad.mendoza@sjk.com",
      "giro": "INDUSTRIA",
      "convenio": "SI",
      "comentarios": ""
    },
    {
      "no": 200,
      "empresa": "STRYKER MANUFACTURING, S. DE R.L. DE C.V.",
      "telefono": "664-423-2009",
      "contacto": "C.P. GEMA IRELDA RODRÍGUEZ HENRIQUEZ (GERENTE DE CONTABLIDAD)   / ING. RAFAEL ANDRES BERRELLEZA DIAZ  (INGENIERÍA)",
      "correo_electronico": "gema.rodriguez@stryker.com   /  rafael.berrelleza@stryker.com    /   monica.villanueva@stryker.com",
      "giro": "MANUFACTURA",
      "convenio": "SI",
      "comentarios": ""
    },
    {
      "no": 201,
      "empresa": "SUMMIT DE BAJA CALIFORNIA S.A DE C.V.",
      "telefono": "902  66  92  Ext. 3105/3132",
      "contacto": "ING. VÍCTOR HUGO BALLESTEROS ALVAREZ/  LIC. JESUS GUILLERMO RIVAS CARDENAS (LCG)/     RAUL ROSALES BALTAZAR       (INGENIERÍA)",
      "correo_electronico": "agastelum@geckoal.com    /   jrivas@geckoal.com   /     raul.rosales@rb.com",
      "giro": "INDUSTRIAL",
      "convenio": "SI",
      "comentarios": ""
    },
    {
      "no": 202,
      "empresa": "SUNBANK DE MEXICO S DE R.L DE C.V",
      "telefono": "(664) 625 9144",
      "contacto": "ORLANDO GONZALEZ    / MIGUEL IZQUIERDO CUSTODIO",
      "correo_electronico": "orlando.gonzalez@souriau.com    /  mizquierdo@souriau.com",
      "giro": "INDUSTRIAL",
      "convenio": "SI",
      "comentarios": ""
    },
    {
      "no": 203,
      "empresa": "SUPER PACKING TKT, S.A DE C.V",
      "telefono": "(665) 655-5223",
      "contacto": "LIC. FABIOLA TORRES",
      "correo_electronico": "fabiola@superpackingtkt.com",
      "giro": "MAQUILADORA",
      "convenio": "SI",
      "comentarios": ""
    },
    {
      "no": 204,
      "empresa": "TAPICERIAS PACIFICO S.A DE C.V   (Watkins Wellness)",
      "telefono": "(665) 655-1632",
      "contacto": "ING. BALDO MEDINA RAMÍREZ  /  MARIELA RIVERA G.",
      "correo_electronico": "miriam.lizarraga@watkinsmfg,com   /  mariela.rivera@watkinsmfg.com      /    reclutamiento@watkinsmfg.com",
      "giro": "INDUSTRIAL",
      "convenio": "SI",
      "comentarios": ""
    },
    {
      "no": 205,
      "empresa": "TECNO ALL DE MEXICO S.A DE C.V.",
      "telefono": "(664)682-1244 y (664)973-6663",
      "contacto": "ING. NOEMI LIZARRAGA CARRASCO",
      "correo_electronico": "tecnoall_tj1@hotmail.com / noemi@tecnoall.com",
      "giro": "COMERCIO",
      "convenio": "SI",
      "comentarios": ""
    },
    {
      "no": 206,
      "empresa": "THERMO FISHER SCIENTIFIC (LABOMEX MBP S DE RL DE CV)",
      "telefono": "(664)637-9412 Ext.3523179",
      "contacto": "MA. FERNANDA FLORES (HR Training Specialist)       /   ADRIAN LEMUS DE LA CRUZ",
      "correo_electronico": "maria.florespalencia@thermofisher.com",
      "giro": "COMERCIAL",
      "convenio": "SI",
      "comentarios": ""
    },
    {
      "no": 207,
      "empresa": "TOOLS AND METALS SUPPLY DE MEXICO S. DE R.L. DE C.V.",
      "telefono": "664-627-0474",
      "contacto": "ING. ADRIAN LEON NAPOLES/ DIRECTOR DE EMPRESA",
      "correo_electronico": "administracion@toolsandmetals.com",
      "giro": "COMERCIO",
      "convenio": "SI",
      "comentarios": ""
    },
    {
      "no": 208,
      "empresa": "TPE DE MÉXICO, S DE R.L DE C.V",
      "telefono": "(665) 521-1012",
      "contacto": "SAÚL MENDEZ HERNÁNDEZ",
      "correo_electronico": "frida.montes@mtecorp.com",
      "giro": "MAQUILADORA",
      "convenio": "SI",
      "comentarios": ""
    },
    {
      "no": 209,
      "empresa": "TRACKSO S.A. DE C.V.",
      "telefono": "664-280-07-52",
      "contacto": "ING. FRANCELIZ CABRERA GARCÍA/ ENCARGADA DEL AREA DE DESARROLLO Y COMUNICACIONES",
      "correo_electronico": "contacto@smartcenter.com.mx   /  admin.clientes@trackso.com",
      "giro": "SERVICIOS",
      "convenio": "SI",
      "comentarios": ""
    },
    {
      "no": 210,
      "empresa": "TRANSPORTE CASTORES DE BAJA CALIFORNIA S.A. DE C.V.",
      "telefono": "477-528-36-34",
      "contacto": "EDUARDO ANTONIO GONZALEZ MARIN  ( COORDINADOR DE ALMACEN  )     /      LIC. LILIANA CECEÑA",
      "correo_electronico": "coorddistribucion_tij@_castores.com.mx     /       liliana_cecena@castores.com.mx",
      "giro": "SERVICIOS",
      "convenio": "SI",
      "comentarios": ""
    },
    {
      "no": 211,
      "empresa": "TRATADOS INTEGRALES S.A DE C.V.    (INTRADE SYSTEM)",
      "telefono": "(664)  104  43  47",
      "contacto": "LIC. JOSÉ MARCOS GARCÍA   /  ING. ROSEMARY HORTA SAGRERO",
      "correo_electronico": "marco.garcia@intradesystem.com    /    alan.martinez@intradesystem.com  / mgalindo@intradesystem.com     /  rsagrero@intradesystem.com",
      "giro": "MAQUILADORA (EXPORTAR)",
      "convenio": "SI",
      "comentarios": ""
    },
    {
      "no": 212,
      "empresa": "TRELLEBORG SEALING SOLUTIONS MEXICO S.A DE C.V",
      "telefono": "Tel: +52 (664) 645 0353  x 31236",
      "contacto": "ELODIA CASTILLO   /     SONIA OROZCO    / FABIOLA SANTOYO",
      "correo_electronico": "elodia.castillo@trelleborg.com   /    sonia.orozco@trelleborg.com",
      "giro": "INDUSTRIAL",
      "convenio": "SI",
      "comentarios": ""
    },
    {
      "no": 213,
      "empresa": "TRUE BLUE MANUFACTURING S DE R.L DE C.V   (SAMPLING INTERNATIONAL)}",
      "telefono": "664-607-42-08  Ext. 154",
      "contacto": "LIC. MARLENNE GUTIERREZ (HUMAN RESOURCES MANAGER, SI)",
      "correo_electronico": "marlenne.gutierrez@samplinginternational.com",
      "giro": "MAQUILADORA",
      "convenio": "SI",
      "comentarios": ""
    },
    {
      "no": 214,
      "empresa": "TURBO TECNOLOGIA DE REPARACIONES S.A DE C.V",
      "telefono": "647-41-00",
      "contacto": "EDWIN BUCHANAN",
      "correo_electronico": "t3_reclutamiento@solarturbines.com",
      "giro": "INDUSTRIAL",
      "convenio": "SI",
      "comentarios": ""
    },
    {
      "no": 215,
      "empresa": "TYP REFRIGERACION S.A. DE C.V.",
      "telefono": "(664)  607  56  78",
      "contacto": "MARCOS ANTONIO ROJAS REYES  /  HUGO YOBANI ANGULO LINDORO",
      "correo_electronico": "mrojas@typrefrigeracion.com.mx        /       hangulo@typrefrigeracion.com.mx",
      "giro": "INDUSTRIAL",
      "convenio": "SI",
      "comentarios": ""
    },
    {
      "no": 216,
      "empresa": "URBANIZADO Y PAVIMENTACIÓN DE BAJA CALIFORNIA S.A DE C.V",
      "telefono": "664 297 85 57",
      "contacto": "LIC. MARÍA GARCÍA   /    BERENICE ESTRADA",
      "correo_electronico": "mara.garcia@urbanizadobc.com  / administracion@urbanizadobc.com",
      "giro": "SERVICIO",
      "convenio": "N/A",
      "comentarios": ""
    },
    {
      "no": 217,
      "empresa": "UNITECH FOAM S.A DE C.V",
      "telefono": "(664)  143  04  84",
      "contacto": "RUBEN MENCIAS",
      "correo_electronico": "ruben.men@unitechfoam.com",
      "giro": "INDUSTRIAL",
      "convenio": "SI",
      "comentarios": ""
    }
  ]